{
  "name": "com-wui-framework-studio",
  "description": "Project focused on tools for maintenance of WUI Framework environment and advanced developer tools.",
  "version": "2019.2.0",
  "private": true,
  "homepage": "www.oidis.org",
  "author": {
    "name": "Jakub Cieslar",
    "email": "cieslar.kuba@gmail.com"
  },
  "license": "Copyright (c) 2019 Oidis. The BSD-3-Clause license for this file can be found in the LICENSE.txt file included with this distribution or at https://spdx.org/licenses/BSD-3-Clause.html#licenseText.",
  "repository": {
    "type": "git",
    "url": "https://gitlab.com/oidis/io-oidis-studio.git"
  },
  "dependencies": {
    "com-wui-framework-usercontrols": "git+https://gitlab.com/oidis/io-oidis-usercontrols.git#develop",
    "com-wui-framework-services": "git+https://gitlab.com/oidis/io-oidis-services.git#develop"
  },
  "loaderClass": "Io.Oidis.Studio.Services.Loader"
}
